electorAr • polArverse
…
electorAr brinda herramientas que facilitan el acceso
y el trabajo con datos electorales de Argentina desde R. Prácticamente
todos los datos tienen como fuente el Atlas Electoral de Andy Tow.
Los mismos pueden ser (a) desagregados a nivl de mesas (con datos desde
2003 a 2019) para cargos nacionales (presidente, diputades y senadores);
o (b) agregados (para cargos ejectuvios, nacionales y provinciales entre
1946 y 2019).

library(electorAr)

# Elecciones disponibles según dos fuente de datos
# 'results' para datos agregados y 'data' para escrutinios provisorios 

show_available_elections(source = "results")
#> # A tibble: 705 x 5
#>    district category round  year  NOMBRE   
#>    <chr>    <chr>    <chr>  <chr> <chr>    
#>  1 arg      presi    balota 2015  ARGENTINA
#>  2 arg      presi    gral   1946  ARGENTINA
#>  3 arg      presi    gral   1951  ARGENTINA
#>  4 arg      presi    gral   1958  ARGENTINA
#>  5 arg      presi    gral   1963  ARGENTINA
#>  6 arg      presi    gral   1983  ARGENTINA
#>  7 arg      presi    gral   1989  ARGENTINA
#>  8 arg      presi    gral   1995  ARGENTINA
#>  9 arg      presi    gral   1999  ARGENTINA
#> 10 arg      presi    gral   2003  ARGENTINA
#> # ... with 695 more rows
…
get_multiple_elections() tiene como paráemtro
obligatorio source donde debe definirse cual de las dos
fuentes de datos se está llamando. Además tiene como posibilidad
devolver un tibble único (simplificando la estructura de
lista de la variable election) con la opción
unnest = TRUE.

(elecciones_simplificadas <- get_multiple_elections(gobernadores_tucuman,
                                      source = 'results', 
                                      unnest = TRUE))
#> # A tibble: 129 x 10
#>    id      category round  year codprov name_prov listas  votos electores cargos
#>    <glue>  <chr>    <chr> <int> <chr>   <chr>     <chr>   <dbl>     <dbl>  <dbl>
#>  1 tucuma~ gober    gral   1983 23      TUCUMAN   Justi~ 253485    612446     34
#>  2 tucuma~ gober    gral   1983 23      TUCUMAN   Union~ 181576    612446     24
#>  3 tucuma~ gober    gral   1983 23      TUCUMAN   Alian~  29103    612446      2
#>  4 tucuma~ gober    gral   1983 23      TUCUMAN   Movim~   4309    612446      0
#>  5 tucuma~ gober    gral   1983 23      TUCUMAN   Comun~   3592    612446      0
#>  6 tucuma~ gober    gral   1983 23      TUCUMAN   De Ce~   3016    612446      0
#>  7 tucuma~ gober    gral   1983 23      TUCUMAN   Union~   1875    612446      0
#>  8 tucuma~ gober    gral   1983 23      TUCUMAN   Feder~   1711    612446      0
#>  9 tucuma~ gober    gral   1983 23      TUCUMAN   Socia~   1674    612446      0
#> 10 tucuma~ gober    gral   1983 23      TUCUMAN   Intra~   1504    612446      0
#> # ... with 119 more rows
…
